…
``` r
output = vector("list", length = 500)

for (i in 1:500) {
  
  output[[i]] = sim_regression(n_subj = 30)
  
}

output |> 
  bind_rows()
```

    ## # A tibble: 500 × 2
    ##    beta0_hat beta1_hat
    ##        <dbl>     <dbl>
    ##  1      2.22      2.99
    ##  2      2.15      3.21
    ##  3      1.97      3.05
    ##  4      2.25      2.79
    ##  5      1.97      3.00
    ##  6      1.94      3.02
    ##  7      2.19      2.79
    ##  8      2.25      2.85
    ##  9      1.83      2.95
    ## 10      2.00      2.89
    ## # ℹ 490 more rows
…
